project/m3/tb/sim_build/dump.vcd
$date
	Tue May 26 20:05:02 2026

$end
$version
	Icarus Verilog
$end
$timescale
	1ps
$end
$scope module top $end
$var wire 1 ! clk $end
$var wire 1 " rst $end
$var wire 8 # s_axil_araddr [7:0] $end
$var wire 1 $ s_axil_arvalid $end
$var wire 8 % s_axil_awaddr [7:0] $end
$var wire 1 & s_axil_awvalid $end
$var wire 1 ' s_axil_bready $end
$var wire 1 ( s_axil_rready $end
$var wire 32 ) s_axil_wdata [31:0] $end
$var wire 4 * s_axil_wstrb [3:0] $end
$var wire 1 + s_axil_wvalid $end
$var wire 32 , s_axis_tdata [31:0] $end
$var wire 1 - s_axis_tlast $end
$var wire 1 . s_axis_tvalid $end
$var wire 1 / s_axis_tready $end
$var wire 1 0 s_axil_wready $end
$var wire 1 1 s_axil_rvalid $end
$var wire 2 2 s_axil_rresp [1:0] $end
$var wire 32 3 s_axil_rdata [31:0] $end
$var wire 1 4 s_axil_bvalid $end
$var wire 2 5 s_axil_bresp [1:0] $end
$var wire 1 6 s_axil_awready $end
$var wire 1 7 s_axil_arready $end
$var parameter 32 8 AXIL_ADDR_W $end
$var parameter 32 9 AXIL_DATA_W $end
$var parameter 32 : AXIS_DATA_W $end
$scope module u_iface $end
$var wire 1 ; ar_xfer $end
$var wire 1 < aw_xfer $end
$var wire 1 ! clk $end
$var wire 1 = core_w_valid $end
$var wire 1 > core_x_valid $end
$var wire 1 " rst $end
$var wire 8 ? s_axil_araddr [7:0] $end
$var wire 1 $ s_axil_arvalid $end
$var wire 8 @ s_axil_awaddr [7:0] $end
$var wire 1 6 s_axil_awready $end
$var wire 1 & s_axil_awvalid $end
$var wire 1 ' s_axil_bready $end
$var wire 1 ( s_axil_rready $end
$var wire 32 A s_axil_wdata [31:0] $end
$var wire 1 0 s_axil_wready $end
$var wire 4 B s_axil_wstrb [3:0] $end
$var wire 1 + s_axil_wvalid $end
$var wire 32 C s_axis_tdata [31:0] $end
$var wire 1 - s_axis_tlast $end
$var wire 1 / s_axis_tready $end
$var wire 1 . s_axis_tvalid $end
$var wire 1 D w_xfer $end
$var wire 1 E write_complete $end
$var wire 32 F write_data [31:0] $end
$var wire 8 G write_addr [7:0] $end
$var wire 1 7 s_axil_arready $end
$var wire 1 H core_x_new_valid $end
$var wire 16 I core_x_new [15:0] $end
$var wire 16 J core_x_data [15:0] $end
$var wire 16 K core_w_data [15:0] $end
$var wire 1 L core_done $end
$var wire 1 M core_busy $end
$var wire 1 N core_accepting_data $end
$var parameter 8 O ADDR_CTRL $end
$var parameter 8 P ADDR_LEAK_RATE $end
$var parameter 8 Q ADDR_N_MINUS_1 $end
$var parameter 8 R ADDR_STATUS $end
$var parameter 8 S ADDR_WIN_U $end
$var parameter 8 T ADDR_X_NEW $end
$var parameter 8 U ADDR_X_PREV $end
$var parameter 32 V AXIL_ADDR_W $end
$var parameter 32 W AXIL_DATA_W $end
$var parameter 32 X AXIS_DATA_W $end
$var parameter 2 Y RESP_OKAY $end
$var reg 1 Z aw_q_valid $end
$var reg 8 [ awaddr_q [7:0] $end
$var reg 1 \ b_pending $end
$var reg 1 ] r_pending $end
$var reg 16 ^ reg_leak_rate [15:0] $end
$var reg 16 _ reg_n_minus_1 [15:0] $end
$var reg 32 ` reg_win_u [31:0] $end
$var reg 16 a reg_x_new [15:0] $end
$var reg 16 b reg_x_prev [15:0] $end
$var reg 2 c s_axil_bresp [1:0] $end
$var reg 1 4 s_axil_bvalid $end
$var reg 32 d s_axil_rdata [31:0] $end
$var reg 2 e s_axil_rresp [1:0] $end
$var reg 1 1 s_axil_rvalid $end
$var reg 1 f start_pulse $end
$var reg 1 g sticky_done $end
$var reg 1 h w_q_valid $end
$var reg 32 i wdata_q [31:0] $end
$scope module u_core $end
$var wire 16 j N_minus_1 [15:0] $end
$var wire 1 M busy $end
$var wire 1 ! clk $end
$var wire 1 L done $end
$var wire 16 k leak_rate [15:0] $end
$var wire 1 l mac_en $end
$var wire 1 " rst $end
$var wire 1 f start $end
$var wire 16 m w_data [15:0] $end
$var wire 1 = w_valid $end
$var wire 32 n win_u [31:0] $end
$var wire 16 o x_data [15:0] $end
$var wire 16 p x_new [15:0] $end
$var wire 1 H x_new_valid $end
$var wire 16 q x_prev_self [15:0] $end
$var wire 1 > x_valid $end
$var wire 16 r tanh_out [15:0] $end
$var wire 1 s mac_clr $end
$var wire 32 t mac_acc [31:0] $end
$var wire 16 u blend_out [15:0] $end
$var wire 1 N accepting_data $end
$var parameter 32 v ACC_W $end
$var parameter 32 w DATA_W $end
$var reg 16 x N_minus_1_reg [15:0] $end
$var reg 1 y done_reg $end
$var reg 16 z k_counter [15:0] $end
$var reg 16 { leak_rate_reg [15:0] $end
$var reg 3 | next_state [2:0] $end
$var reg 32 } pre_act [31:0] $end
$var reg 3 ~ state [2:0] $end
$var reg 32 !! win_u_reg [31:0] $end
$var reg 16 "! x_new_reg [15:0] $end
$var reg 1 #! x_new_valid_reg $end
$var reg 16 $! x_prev_self_reg [15:0] $end
$scope module u_blend $end
$var wire 16 %! leak_rate [15:0] $end
$var wire 16 &! x_prev [15:0] $end
$var wire 32 '! term_prev [31:0] $end
$var wire 32 (! term_new [31:0] $end
$var wire 16 )! tanh_out [15:0] $end
$var wire 32 *! sum_shr15 [31:0] $end
$var wire 32 +! sum_q30 [31:0] $end
$var wire 16 ,! one_minus_a [15:0] $end
$var parameter 16 -! Q15_NEG_ONE $end
$var parameter 16 .! Q15_ONE $end
$var parameter 16 /! Q15_POS_ONE $end
$var reg 16 0! x_new [15:0] $end
$upscope $end
$scope module u_mac $end
$var wire 1 ! clk $end
$var wire 1 s clr $end
$var wire 1 l en $end
$var wire 1 " rst $end
$var wire 16 1! w [15:0] $end
$var wire 16 2! x [15:0] $end
$var wire 32 3! product [31:0] $end
$var reg 32 4! acc [31:0] $end
$upscope $end
$scope module u_tanh $end
$var wire 32 5! acc [31:0] $end
$var wire 16 6! x_quarter_q15 [15:0] $end
$var wire 16 7! x_q15 [15:0] $end
$var wire 16 8! x_half_q15 [15:0] $end
$var wire 16 9! x_eighth_q15 [15:0] $end
$var wire 16 :! x_5_8_q15 [15:0] $end
$var wire 32 ;! acc_shr18 [31:0] $end
$var wire 32 <! acc_shr17 [31:0] $end
$var wire 32 =! acc_shr16 [31:0] $end
$var wire 32 >! acc_shr15 [31:0] $end
$var parameter 16 ?! Q15_3_16 $end
$var parameter 16 @! Q15_HALF $end
$var parameter 16 A! Q15_NEG_3_16 $end
$var parameter 16 B! Q15_NEG_HALF $end
$var parameter 16 C! Q15_NEG_ONE $end
$var parameter 16 D! Q15_POS_ONE $end
$var parameter 32 E! Q30_HALF $end
$var parameter 32 F! Q30_NEGTWO $end
$var parameter 32 G! Q30_NEG_HALF $end
$var parameter 32 H! Q30_NEG_ONE $end
$var parameter 32 I! Q30_ONE $end
$var parameter 32 J! Q30_TWO_MARK $end
$var reg 16 K! tanh_out [15:0] $end
$upscope $end
$upscope $end
$upscope $end
$upscope $end
$enddefinitions $end
$dumpvars
#0
b0000000000000000 K!
b01111111111111111111111111111111 J!
b01000000000000000000000000000000 I!
b11000000000000000000000000000000 H!
b11100000000000000000000000000000 G!
b10000000000000000000000000000000 F!
b00100000000000000000000000000000 E!
b0111111111111111 D!
b1000000000000000 C!
b1100000000000000 B!
b1111010000000000 A!
b0100000000000000 @!
b0000110000000000 ?!
b00000000000000000000000000000000 >!
b00000000000000000000000000000000 =!
b00000000000000000000000000000000 <!
b00000000000000000000000000000000 ;!
b0000000000000000 :!
b0000000000000000 9!
b0000000000000000 8!
b0000000000000000 7!
b0000000000000000 6!
b00000000000000000000000000000000 5!
b00000000000000000000000000000000 4!
b00000000000000000000000000000000 3!
b0000000000000000 2!
b0000000000000000 1!
b0000000000000000 0!
b0111111111111111 /!
b0111111111111111 .!
b1000000000000000 -!
b0111111111111111 ,!
b00000000000000000000000000000000 +!
b00000000000000000000000000000000 *!
b0000000000000000 )!
b00000000000000000000000000000000 (!
b00000000000000000000000000000000 '!
b0000000000000000 &!
b0000000000000000 %!
b0000000000000000 $!
0#!
b0000000000000000 "!
b00000000000000000000000000000000 !!
b000 ~
b00000000000000000000000000000000 }
b000 |
b0000000000000000 {
b0000000000000000 z
0y
b0000000000000000 x
b00000000000000000000000000010000 w
b00000000000000000000000000100000 v
b0000000000000000 u
b00000000000000000000000000000000 t
0s
b0000000000000000 r
b0000000000000000 q
b0000000000000000 p
b0000000000000000 o
b00000000000000000000000000000000 n
b0000000000000000 m
0l
b0000000000000000 k
b0000000000000000 j
b00000000000000000000000000000000 i
0h
0g
0f
b00 e
b00000000000000000000000000000000 d
b00 c
b0000000000000000 b
b0000000000000000 a
b00000000000000000000000000000000 `
b0000000000000000 _
b0000000000000000 ^
0]
0\
b00000000 [
0Z
b00 Y
b00000000000000000000000000100000 X
b00000000000000000000000000100000 W
b00000000000000000000000000001000 V
b00010100 U
b00011000 T
b00010000 S
b00000100 R
b00001000 Q
b00001100 P
b00000000 O
0N
0M
0L
b0000000000000000 K
b0000000000000000 J
b0000000000000000 I
0H
bzzzzzzzz G
bzzzzzzzzzzzzzzzzzzzzzzzzzzzzzzzz F
0E
0D
b00000000000000000000000000000000 C
bzzzz B
bzzzzzzzzzzzzzzzzzzzzzzzzzzzzzzzz A
bzzzzzzzz @
bzzzzzzzz ?
0>
0=
0<
0;
b00000000000000000000000000100000 :
b00000000000000000000000000100000 9
b00000000000000000000000000001000 8
17
16
b00 5
04
b00000000000000000000000000000000 3
b00 2
01
10
0/
0.
0-
b00000000000000000000000000000000 ,
0+
bzzzz *
bzzzzzzzzzzzzzzzzzzzzzzzzzzzzzzzz )
1(
1'
0&
bzzzzzzzz %
0$
bzzzzzzzz #
1"
1!
#5000
0!
#10000
1!
#15000
0!
#20000
1!
0"
#25000
0!
#30000
1!
#35000
0!
#40000
1!
b00001000 %
1&
b00000000000000000000000000111111 )
b1111 *
1+
1<
b00001000 @
b00000000000000000000000000111111 A
b1111 B
1D
1E
b00000000000000000000000000111111 F
b00001000 G
#45000
0!
#50000
1!
0E
0D
0<
0+
0&
00
14
06
1\
b0000000000111111 _
b0000000000111111 j
#55000
0!
#60000
1!
0\
16
04
10
#65000
0!
#70000
1!
1&
1+
1<
1D
1E
b00001100 G
b00000000000000000010011001100110 F
b00000000000000000010011001100110 A
b00001100 @
b00000000000000000010011001100110 )
b00001100 %
#75000
0!
#80000
1!
0E
0D
0<
0+
0&
00
14
06
1\
b0010011001100110 ^
b0010011001100110 k
#85000
0!
#90000
1!
0\
16
04
10
#95000
0!
#100000
1!
1&
1+
1<
1D
1E
b00010000 %
b00000011001100110011001100110011 )
b00010000 @
b00000011001100110011001100110011 A
b00000011001100110011001100110011 F
b00010000 G
#105000
0!
#110000
1!
0E
0D
0<
0+
0&
00
14
06
1\
b00000011001100110011001100110011 `
b00000011001100110011001100110011 n
#115000
0!
#120000
1!
0\
16
04
10
#125000
0!
#130000
1!
1&
1+
1<
1D
1E
b00010100 G
b00000000000000000000110011001101 F
b00000000000000000000110011001101 A
b00010100 @
b00000000000000000000110011001101 )
b00010100 %
#135000
0!
#140000
1!
0E
0D
0<
0+
0&
00
14
06
1\
b0000110011001101 b
b0000110011001101 q
#145000
0!
#150000
1!
0\
16
04
10
#155000
0!
#160000
1!
1&
1+
1<
1D
1E
b00000000 %
b00000000000000000000000000000001 )
b00000000 @
b00000000000000000000000000000001 A
b00000000000000000000000000000001 F
b00000000 G
#165000
0!
#170000
1!
0E
0D
0<
0+
0&
00
14
06
1\
1f
b001 |
#175000
0!
#180000
1!
b010 |
0f
0\
16
04
10
1M
1s
b0000100011110101 u
b0000000000111111 x
b0010011001100110 {
b001 ~
b00000011001100110011001100110011 !!
b0000110011001101 $!
b0010011001100110 %!
b0000110011001101 &!
b00000100011110101110101110000101 '!
b00000000000000000000100011110101 *!
b00000100011110101110101110000101 +!
b0101100110011001 ,!
b0000100011110101 0!
#185000
0!
b00011010010101010000100011101100 ,
1.
b00011010010101010000100011101100 C
b0001101001010101 J
b0000100011101100 K
b0000100011101100 m
b0001101001010101 o
b0000100011101100 1!
b0001101001010101 2!
b00000000111010101110111001011100 3!
#190000
1!
b010 ~
0s
1/
1=
1>
1N
1l
#195000
0!
#200000
1!
b00000000111010101110111001011100 t
b0000000000000001 z
b00000000111010101110111001011100 4!
#205000
0!
0l
0>
0=
0.
#210000
1!
#215000
0!
1.
1=
1>
1l
b11111101011110111011001000010100 3!
b0001010100110010 2!
b1110000110011010 1!
b0001010100110010 o
b1110000110011010 m
b1110000110011010 K
b0001010100110010 J
b00010101001100101110000110011010 C
b00010101001100101110000110011010 ,
#220000
1!
b11111110011001101010000001110000 4!
b0000000000000010 z
b11111110011001101010000001110000 t
#225000
0!
0l
0>
0=
0.
#230000
1!
#235000
0!
1.
1=
1>
1l
b11101011001100011111000110011010 ,
b11101011001100011111000110011010 C
b1110101100110001 J
b1111000110011010 K
b1111000110011010 m
b1110101100110001 o
b1111000110011010 1!
b1110101100110001 2!
b00000001001010111001110001111010 3!
#240000
1!
b11111111100100100011110011101010 t
b0000000000000011 z
b11111111100100100011110011101010 4!
#245000
0!
0l
0>
0=
0.
#250000
1!
#255000
0!
1.
1=
1>
1l
b00000010011111001000111011011001 3!
b1101110000010001 2!
b1110111001001001 1!
b1101110000010001 o
b1110111001001001 m
b1110111001001001 K
b1101110000010001 J
b11011100000100011110111001001001 C
b11011100000100011110111001001001 ,
#260000
1!
b00000010000011101100101111000011 4!
b0000000000000100 z
b00000010000011101100101111000011 t
#265000
0!
0l
0>
0=
0.
#270000
1!
#275000
0!
1.
1=
1>
1l
b11110001110101000000111100100010 ,
b11110001110101000000111100100010 C
b1111000111010100 J
b0000111100100010 K
b0000111100100010 m
b1111000111010100 o
b0000111100100010 1!
b1111000111010100 2!
b11111111001010011000101000101000 3!
#280000
1!
b00000001001110000101010111101011 t
b0000000000000101 z
b00000001001110000101010111101011 4!
#285000
0!
0l
0>
0=
0.
#290000
1!
#295000
0!
1.
1=
1>
1l
b11111111001101100100110011110110 3!
b1110111000101010 2!
b0000101101001111 1!
b1110111000101010 o
b0000101101001111 m
b0000101101001111 K
b1110111000101010 J
b11101110001010100000101101001111 C
b11101110001010100000101101001111 ,
#300000
1!
b00000000011011101010001011100001 4!
b0000000000000110 z
b00000000011011101010001011100001 t
#305000
0!
0l
0>
0=
0.
#310000
1!
#315000
0!
1.
1=
1>
1l
b11101001110011100001100100011001 ,
b11101001110011100001100100011001 C
b1110100111001110 J
b0001100100011001 K
b0001100100011001 m
b1110100111001110 o
b0001100100011001 1!
b1110100111001110 2!
b11111101110100101111001100011110 3!
#320000
1!
b11111110010000011001010111111111 t
b0000000000000111 z
b11111110010000011001010111111111 4!
#325000
0!
0l
0>
0=
0.
#330000
1!
#335000
0!
1.
1=
1>
1l
b11111100011111001011011001000000 3!
b0010001000000100 2!
b1110010110010000 1!
b0010001000000100 o
b1110010110010000 m
b1110010110010000 K
b0010001000000100 J
b00100010000001001110010110010000 C
b00100010000001001110010110010000 ,
#340000
1!
b11111010101111100100110000111111 4!
b0000000000001000 z
b11111010101111100100110000111111 t
#345000
0!
0l
0>
0=
0.
#350000
1!
#355000
0!
1.
1=
1>
1l
b00011100111010001111101100000001 ,
b00011100111010001111101100000001 C
b0001110011101000 J
b1111101100000001 K
b1111101100000001 m
b0001110011101000 o
b1111101100000001 1!
b0001110011101000 2!
b11111111011011111001010011101000 3!
#360000
1!
b11111010001011011110000100100111 t
b0000000000001001 z
b11111010001011011110000100100111 4!
#365000
0!
0l
0>
0=
0.
#370000
1!
#375000
0!
1.
1=
1>
1l
b00000001101011000101110110100000 3!
b1111000111000100 2!
b1110000111101000 1!
b1111000111000100 o
b1110000111101000 m
b1110000111101000 K
b1111000111000100 J
b11110001110001001110000111101000 C
b11110001110001001110000111101000 ,
#380000
1!
b11111011110110100011111011000111 4!
b0000000000001010 z
b11111011110110100011111011000111 t
#385000
0!
0l
0>
0=
0.
#390000
1!
#395000
0!
1.
1=
1>
1l
b00001011111100001110110111111110 ,
b00001011111100001110110111111110 C
b0000101111110000 J
b1110110111111110 K
b1110110111111110 m
b0000101111110000 o
b1110110111111110 1!
b0000101111110000 2!
b11111111001010010000100000100000 3!
#400000
1!
b11111011000000110100011011100111 t
b0000000000001011 z
b11111011000000110100011011100111 4!
#405000
0!
0l
0>
0=
0.
#410000
1!
#415000
0!
1.
1=
1>
1l
b11111111111111010011111010100000 3!
b1111011111111100 2!
b0000000001011000 1!
b1111011111111100 o
b0000000001011000 m
b0000000001011000 K
b1111011111111100 J
b11110111111111000000000001011000 C
b11110111111111000000000001011000 ,
#420000
1!
b11111011000000001000010110000111 4!
b0000000000001100 z
b11111011000000001000010110000111 t
#425000
0!
0l
0>
0=
0.
#430000
1!
#435000
0!
1.
1=
1>
1l
b00011111110101101110000110110011 ,
b00011111110101101110000110110011 C
b0001111111010110 J
b1110000110110011 K
b1110000110110011 m
b0001111111010110 o
b1110000110110011 1!
b0001111111010110 2!
b11111100001110110101100010100010 3!
#440000
1!
b11110111001110111101111000101001 t
b0000000000001101 z
b11110111001110111101111000101001 4!
#445000
0!
0l
0>
0=
0.
#450000
1!
#455000
0!
1.
1=
1>
1l
b00000000001111001110100000110110 3!
b1111110011010111 2!
b1110110010111010 1!
b1111110011010111 o
b1110110010111010 m
b1110110010111010 K
b1111110011010111 J
b11111100110101111110110010111010 C
b11111100110101111110110010111010 ,
#460000
1!
b11110111011110001100011001011111 4!
b0000000000001110 z
b11110111011110001100011001011111 t
#465000
0!
0l
0>
0=
0.
#470000
1!
#475000
0!
1.
1=
1>
1l
b11101101111100010000100110011000 ,
b11101101111100010000100110011000 C
b1110110111110001 J
b0000100110011000 K
b0000100110011000 m
b1110110111110001 o
b0000100110011000 1!
b1110110111110001 2!
b11111111010100101100000000011000 3!
#480000
1!
b11110110110010111000011001110111 t
b0000000000001111 z
b11110110110010111000011001110111 4!
#485000
0!
0l
0>
0=
0.
#490000
1!
#495000
0!
1.
1=
1>
1l
b11111111110010000000110011000000 3!
b1110110010001010 2!
b0000001011100000 1!
b1110110010001010 o
b0000001011100000 m
b0000001011100000 K
b1110110010001010 J
b11101100100010100000001011100000 C
b11101100100010100000001011100000 ,
#500000
1!
b11110110100100111001001100110111 4!
b0000000000010000 z
b11110110100100111001001100110111 t
#505000
0!
0l
0>
0=
0.
#510000
1!
#515000
0!
1.
1=
1>
1l
b00000100101101111110111000011100 ,
b00000100101101111110111000011100 C
b0000010010110111 J
b1110111000011100 K
b1110111000011100 m
b0000010010110111 o
b1110111000011100 1!
b0000010010110111 2!
b11111111101010111010011000000100 3!
#520000
1!
b11110110001111110011100100111011 t
b0000000000010001 z
b11110110001111110011100100111011 4!
#525000
0!
0l
0>
0=
0.
#530000
1!
#535000
0!
1.
1=
1>
1l
b11111111100101111101110001000001 3!
b1110110111000111 2!
b0000010110110111 1!
b1110110111000111 o
b0000010110110111 m
b0000010110110111 K
b1110110111000111 J
b11101101110001110000010110110111 C
b11101101110001110000010110110111 ,
#540000
1!
b11110101110101110001010101111100 4!
b0000000000010010 z
b11110101110101110001010101111100 t
#545000
0!
0l
0>
0=
0.
#550000
1!
#555000
0!
1.
1=
1>
1l
b00000110011111110001001111001110 ,
b00000110011111110001001111001110 C
b0000011001111111 J
b0001001111001110 K
b0001001111001110 m
b0000011001111111 o
b0001001111001110 1!
b0000011001111111 2!
b00000000100000001010011100110010 3!
#560000
1!
b11110110010101111011110010101110 t
b0000000000010011 z
b11110110010101111011110010101110 4!
#565000
0!
0l
0>
0=
0.
#570000
1!
#575000
0!
1.
1=
1>
1l
b11111100001110101110011011001100 3!
b0001111010001110 2!
b1110000001101010 1!
b0001111010001110 o
b1110000001101010 m
b1110000001101010 K
b0001111010001110 J
b00011110100011101110000001101010 C
b00011110100011101110000001101010 ,
#580000
1!
b11110010100100101010001101111010 4!
b0000000000010100 z
b11110010100100101010001101111010 t
#585000
0!
0l
0>
0=
0.
#590000
1!
#595000
0!
1.
1=
1>
1l
b11111000010001100001001110010011 ,
b11111000010001100001001110010011 C
b1111100001000110 J
b0001001110010011 K
b0001001110010011 m
b1111100001000110 o
b0001001110010011 1!
b1111100001000110 2!
b11111111011010001100001000110010 3!
#600000
1!
b11110001111110110110010110101100 t
b0000000000010101 z
b11110001111110110110010110101100 4!
#605000
0!
0l
0>
0=
0.
#610000
1!
#615000
0!
1.
1=
1>
1l
b11111110111011101011000101111100 3!
b1110101001110010 2!
b0000110010101110 1!
b1110101001110010 o
b0000110010101110 m
b0000110010101110 K
b1110101001110010 J
b11101010011100100000110010101110 C
b11101010011100100000110010101110 ,
#620000
1!
b11110000111010100001011100101000 4!
b0000000000010110 z
b11110000111010100001011100101000 t
#625000
0!
0l
0>
0=
0.
#630000
1!
#635000
0!
1.
1=
1>
1l
b00100110001101101111010111000111 ,
b00100110001101101111010111000111 C
b0010011000110110 J
b1111010111000111 K
b1111010111000111 m
b0010011000110110 o
b1111010111000111 1!
b0010011000110110 2!
b11111110011110010110000111111010 3!
#640000
1!
b11101111011000110111100100100010 t
b0000000000010111 z
b11101111011000110111100100100010 4!
#645000
0!
0l
0>
0=
0.
#650000
1!
#655000
0!
1.
1=
1>
1l
b11111111111011111110010010000001 3!
b0000000010111011 2!
b1110100111110011 1!
b0000000010111011 o
b1110100111110011 m
b1110100111110011 K
b0000000010111011 J
b00000000101110111110100111110011 C
b00000000101110111110100111110011 ,
#660000
1!
b11101111010100110101110110100011 4!
b0000000000011000 z
b11101111010100110101110110100011 t
#665000
0!
0l
0>
0=
0.
#670000
1!
#675000
0!
1.
1=
1>
1l
b11100000100101010001110101000011 ,
b11100000100101010001110101000011 C
b1110000010010101 J
b0001110101000011 K
b0001110101000011 m
b1110000010010101 o
b0001110101000011 1!
b1110000010010101 2!
b11111100011010001010011111111111 3!
#680000
1!
b11101011101111000000010110100010 t
b0000000000011001 z
b11101011101111000000010110100010 4!
#685000
0!
0l
0>
0=
0.
#690000
1!
#695000
0!
1.
1=
1>
1l
b00000001011010111011010101101000 3!
b1101110100111000 2!
b1111010110001011 1!
b1101110100111000 o
b1111010110001011 m
b1111010110001011 K
b1101110100111000 J
b11011101001110001111010110001011 C
b11011101001110001111010110001011 ,
#700000
1!
b11101101001001111011101100001010 4!
b0000000000011010 z
b11101101001001111011101100001010 t
#705000
0!
0l
0>
0=
0.
#710000
1!
#715000
0!
1.
1=
1>
1l
b11100010000001011110010111110000 ,
b11100010000001011110010111110000 C
b1110001000000101 J
b1110010111110000 K
b1110010111110000 m
b1110001000000101 o
b1110010111110000 1!
b1110001000000101 2!
b00000011000011010101110110110000 3!
#720000
1!
b11110000001101010001100010111010 t
b0000000000011011 z
b11110000001101010001100010111010 4!
#725000
0!
0l
0>
0=
0.
#730000
1!
#735000
0!
1.
1=
1>
1l
b11111111000000110101101110101010 3!
b0000100111001010 2!
b1110011000110001 1!
b0000100111001010 o
b1110011000110001 m
b1110011000110001 K
b0000100111001010 J
b00001001110010101110011000110001 C
b00001001110010101110011000110001 ,
#740000
1!
b11101111001110000111010001100100 4!
b0000000000011100 z
b11101111001110000111010001100100 t
#745000
0!
0l
0>
0=
0.
#750000
1!
#755000
0!
1.
1=
1>
1l
b00010110011011110001011000111101 ,
b00010110011011110001011000111101 C
b0001011001101111 J
b0001011000111101 K
b0001011000111101 m
b0001011001101111 o
b0001011000111101 1!
b0001011001101111 2!
b00000001111100101110001001110011 3!
#760000
1!
b11110001001010110101011011010111 t
b0000000000011101 z
b11110001001010110101011011010111 4!
#765000
0!
0l
0>
0=
0.
#770000
1!
#775000
0!
1.
1=
1>
1l
b11111111110110000101010111010010 3!
b1111101000000110 2!
b0000011010100011 1!
b1111101000000110 o
b0000011010100011 m
b0000011010100011 K
b1111101000000110 J
b11111010000001100000011010100011 C
b11111010000001100000011010100011 ,
#780000
1!
b11110001000000111010110010101001 4!
b0000000000011110 z
b11110001000000111010110010101001 t
#785000
0!
0l
0>
0=
0.
#790000
1!
#795000
0!
1.
1=
1>
1l
b11011110011110110001001110101000 ,
b11011110011110110001001110101000 C
b1101111001111011 J
b0001001110101000 K
b0001001110101000 m
b1101111001111011 o
b0001001110101000 1!
b1101111001111011 2!
b11111101011011010010000110111000 3!
#800000
1!
b11101110011100001100111001100001 t
b0000000000011111 z
b11101110011100001100111001100001 4!
#805000
0!
0l
0>
0=
0.
#810000
1!
#815000
0!
1.
1=
1>
1l
b11111111011110100101100111010100 3!
b1111011011101001 2!
b0000111010110100 1!
b1111011011101001 o
b0000111010110100 m
b0000111010110100 K
b1111011011101001 J
b11110110111010010000111010110100 C
b11110110111010010000111010110100 ,
#820000
1!
b11101101111010110010100000110101 4!
b0000000000100000 z
b11101101111010110010100000110101 t
#825000
0!
0l
0>
0=
0.
#830000
1!
#835000
0!
1.
1=
1>
1l
b00100110000110100000001001010010 ,
b00100110000110100000001001010010 C
b0010011000011010 J
b0000001001010010 K
b0000001001010010 m
b0010011000011010 o
b0000001001010010 1!
b0010011000011010 2!
b00000000010110000110100001010100 3!
#840000
1!
b11101110010000111001000010001001 t
b0000000000100001 z
b11101110010000111001000010001001 4!
#845000
0!
0l
0>
0=
0.
#850000
1!
#855000
0!
1.
1=
1>
1l
b00000000010000111010100011100000 3!
b0000001000111100 2!
b0001111001001000 1!
b0000001000111100 o
b0001111001001000 m
b0001111001001000 K
b0000001000111100 J
b00000010001111000001111001001000 C
b00000010001111000001111001001000 ,
#860000
1!
b11101110100001110011100101101001 4!
b0000000000100010 z
b11101110100001110011100101101001 t
#865000
0!
0l
0>
0=
0.
#870000
1!
#875000
0!
1.
1=
1>
1l
b00100100001011101111100000111010 ,
b00100100001011101111100000111010 C
b0010010000101110 J
b1111100000111010 K
b1111100000111010 m
b0010010000101110 o
b1111100000111010 1!
b0010010000101110 2!
b11111110111001101100001001101100 3!
#880000
1!
b11101101011011011111101111010101 t
b0000000000100011 z
b11101101011011011111101111010101 4!
#885000
0!
0l
0>
0=
0.
#890000
1!
#895000
0!
1.
1=
1>
1l
b00000000010111000101001000011001 3!
b0001101110110101 2!
b0000001101010101 1!
b0001101110110101 o
b0000001101010101 m
b0000001101010101 K
b0001101110110101 J
b00011011101101010000001101010101 C
b00011011101101010000001101010101 ,
#900000
1!
b11101101110010100100110111101110 4!
b0000000000100100 z
b11101101110010100100110111101110 t
#905000
0!
0l
0>
0=
0.
#910000
1!
#915000
0!
1.
1=
1>
1l
b11011010011110110001010100010101 ,
b11011010011110110001010100010101 C
b1101101001111011 J
b0001010100010101 K
b0001010100010101 m
b1101101001111011 o
b0001010100010101 1!
b1101101001111011 2!
b11111100111010010000001100010111 3!
#920000
1!
b11101010101100110101000100000101 t
b0000000000100101 z
b11101010101100110101000100000101 4!
#925000
0!
0l
0>
0=
0.
#930000
1!
#935000
0!
1.
1=
1>
1l
b00000000100000001001101011111000 3!
b0001000011110100 2!
b0000011110010110 1!
b0001000011110100 o
b0000011110010110 m
b0000011110010110 K
b0001000011110100 J
b00010000111101000000011110010110 C
b00010000111101000000011110010110 ,
#940000
1!
b11101011001100111110101111111101 4!
b0000000000100110 z
b11101011001100111110101111111101 t
#945000
0!
0l
0>
0=
0.
#950000
1!
#955000
0!
1.
1=
1>
1l
b00001101111101010001011100100110 ,
b00001101111101010001011100100110 C
b0000110111110101 J
b0001011100100110 K
b0001011100100110 m
b0000110111110101 o
b0001011100100110 1!
b0000110111110101 2!
b00000001010000110001010101011110 3!
#960000
1!
b11101100011101110000000101011011 t
b0000000000100111 z
b11101100011101110000000101011011 4!
#965000
0!
0l
0>
0=
0.
#970000
1!
#975000
0!
1.
1=
1>
1l
b00000000000011100000111000010101 3!
b0000001011010111 2!
b0000010011110011 1!
b0000001011010111 o
b0000010011110011 m
b0000010011110011 K
b0000001011010111 J
b00000010110101110000010011110011 C
b00000010110101110000010011110011 ,
#980000
1!
b11101100100001010000111101110000 4!
b0000000000101000 z
b11101100100001010000111101110000 t
#985000
0!
0l
0>
0=
0.
#990000
1!
#995000
0!
1.
1=
1>
1l
b11101110000110000000110100011000 ,
b11101110000110000000110100011000 C
b1110111000011000 J
b0000110100011000 K
b0000110100011000 m
b1110111000011000 o
b0000110100011000 1!
b1110111000011000 2!
b11111111000101011000101001000000 3!
#1000000
1!
b11101011100110101001100110110000 t
b0000000000101001 z
b11101011100110101001100110110000 4!
#1005000
0!
0l
0>
0=
0.
#1010000
1!
#1015000
0!
1.
1=
1>
1l
b11111110110001010110000011111101 3!
b0000101011010011 2!
b1110001011101111 1!
b0000101011010011 o
b1110001011101111 m
b1110001011101111 K
b0000101011010011 J
b00001010110100111110001011101111 C
b00001010110100111110001011101111 ,
#1020000
1!
b11101010010111111111101010101101 4!
b0000000000101010 z
b11101010010111111111101010101101 t
#1025000
0!
0l
0>
0=
0.
#1030000
1!
#1035000
0!
1.
1=
1>
1l
b11100010001010111110111010010110 ,
b11100010001010111110111010010110 C
b1110001000101011 J
b1110111010010110 K
b1110111010010110 m
b1110001000101011 o
b1110111010010110 1!
b1110001000101011 2!
b00000010000001110111111100110010 3!
#1040000
1!
b11101100011001110111100111011111 t
b0000000000101011 z
b11101100011001110111100111011111 4!
#1045000
0!
0l
0>
0=
0.
#1050000
1!
#1055000
0!
1.
1=
1>
1l
b00000000010000111000111101110001 3!
b1111101011111101 2!
b1111001010000101 1!
b1111101011111101 o
b1111001010000101 m
b1111001010000101 K
b1111101011111101 J
b11111010111111011111001010000101 C
b11111010111111011111001010000101 ,
#1060000
1!
b11101100101010110000100101010000 4!
b0000000000101100 z
b11101100101010110000100101010000 t
#1065000
0!
0l
0>
0=
0.
#1070000
1!
